--------------------------------------------------------------------------------------
https://easy2study.com/war/payments/create-checkout-session/ - создание сессии оплаты персональных занятий;
метод POST;
Body:
{
    "user_id": 124, #id плательщика (текущего пользователя)
    "order_ids": "146", #id заявки, строка, если хотим сразу несколько, то указываем через запятую ("144,145,146")
    "order_type": "personal" #для персонального урока
}
Ответ:
{
    "sessionId": "cs_test_a1FAhuug5kPVs8GEVkYZGcdKy6QakBdLPgGEN9Va7sxQT5pOZqFb5bfQNa"
}
--------------------------------------------------------------------------------------
https://easy2study.com/war/payments/create-checkout-session/ - создание сессии оплаты курса;
метод POST;
Body:
{
    "user_id": 124, #id плательщика (текущего пользователя)
    "order_ids": "146", #id заявки
    "order_type": "course" #для курса
}
Ответ:
{
    "sessionId": "cs_test_a1FAhuug5kPVs8GEVkYZGcdKy6QakBdLPgGEN9Va7sxQT5pOZqFb5bfQNa"
}
--------------------------------------------------------------------------------------
В моём случае рендерится страница оплаты Stripe;
Протестировать как это работает можно по ссылке https://easy2study.com/war/payments/, нужно ввести id пользователя 
и заявки (предварительно забронировав платное время);
--------------------------------------------------------------------------------------
Ошибки приходят со статусом 400 и в ввиде {'detail': 'Error text'};
--------------------------------------------------------------------------------------
О логике происходящего:
Специальные цены на количество занятий из профиля учителя учтены (тоесть если выбрано 8 то цена будет как lesson_8, а не lesson_1 * 8);
На оплату даётся 15 минут с момента создания заявки (бронирование времени). По истечению времени (в случае если не оплачено) заявка переходит в 
статус 4 (Payment failure), сессия удаляется;
На время оплаты выбранное время не доступно для бронирования другими пользователями;
В случае успешной оплаты заявка переходит в статус 1 (Approved), флаг Buy в значение True и отправляется письмо пользователю 
об успешной оплате (пока без invoice от Stripe);
--------------------------------------------------------------------------------------
*Неплохо было бы в заявке отобразить таймер, опираясь на поле created_at заявки;
--------------------------------------------------------------------------------------
Нужно 2 страницы на фронте: одна сообщает об успешной оплате, другая об отмене оплаты;
Это нужно для редиректа со стороны Backend;
На данный момент просто подкидываю два простых шаблона в html;
--------------------------------------------------------------------------------------