--------------------------------------------------------------------------------------
https://easy2study.com/war/api/admin/users/name_change/?search=word - список среди желающих изменить имя + поиск;
Метод GET;
Требуется токен администратора в header;
--------------------------------------------------------------------------------------
https://easy2study.com/war/api/admin/users/commit_name_change/?id={id} - одобрить изменения;
Метод GET;
Требуется токен администратора в header;
--------------------------------------------------------------------------------------
https://easy2study.com/war/api/admin/users/uncommit_name_change/?id={id} - не одобрить изменения;
Метод GET;
Требуется токен администратора в header;
--------------------------------------------------------------------------------------