--------------------------------------------------------------------------------------
https://easy2study.com/war/api/user/{id}/ - редактирование данных пользовтеля;
метод PATCH;
Body:
{
    "first_name": "Irina",
    "last_name": "Super",
    "city": 1,
    "language": [15, 7]
}
*Отправляем то, что хотим изменить;
Требуется токен пользователя в header;
--------------------------------------------------------------------------------------
https://easy2study.com/war/api/countries - список стран;
Метод GET;
--------------------------------------------------------------------------------------