--------------------------------------------------------------------------------------
https://easy2study.com/war/api/course/order - список заявок;
Студент получает только свои заявки на курсы, а учитель - все заявки на свои курсы;
Метод GET;
Требуется токен в header;
--------------------------------------------------------------------------------------
https://easy2study.com/war/api/course/order/ - бронирование курса;
Метод POST;
Body:
{
    "course": 1, #тут id объекта курса
    "category": 2 #id категории, пока можно данную строку вообще не отправлять, не понятен её смысл
}
Требуется токен студента в header;
Пример ответа:
{'detail': 'Course successfully booked! You have 15 minutes to payment!', 'id': 123}
--------------------------------------------------------------------------------------
https://easy2study.com/war/api/course/order/{id}/ - просмотр заявки;
Метод GET;
Требуется токен в header;
Доступно автору либо учителю;
Учитель может удалять заявки на свой курс со статусом 3 (архив), а ученик только свои также со статусом 3;
--------------------------------------------------------------------------------------
https://easy2study.com/war/api/course/order/{id}/ - удаление заяки из архива;
Метод DELETE;
Требуется токен в header;
--------------------------------------------------------------------------------------
https://easy2study.com/war/api/course/order/filter/?status=1 - фильтр заявок по статусу;
Студент получает только свои заявки на курс, а учитель - все заявки на свои курсы;
Метод GET;
Требуется токен в header;
Статусы:
0, New,
1, Approved,
2, Inapproved,
3, Archive
--------------------------------------------------------------------------------------
https://easy2study.com/war/api/course/order/filter/?id={id} - фильтр заявок по id курса (все статусы);
Студент получает только свои заявки на курс, а учитель - все заявки на выбранный курс;
Метод GET;
Требуется токен в header;
*Также можно использовать вместе с предыдущим запросом, например:
https://easy2study.com/war/api/course/order/filter/?id=52&status=2 и мы получим все отклонённыезаявки на курс с id 52;
--------------------------------------------------------------------------------------
https://easy2study.com/war/api/course/order/{id}/ - смена статуса заявки либо запись ссылки на видеочат;
Только для учителя к которому относится заявка;
Метод PATCH;
Body:
{
    "status": 1
}
Добавление ссылки на видеочат:
{
    "video_room": link
}
Оба параметра в одном теле не отправлять!
Требуется токен учителя в header;
Статусы:
1, Approved,
2, Inapproved
--------------------------------------------------------------------------------------
https://easy2study.com/war/api/course/course_count/ - количество объектов на вкладках;
Метод GET;
Требуется токен в header;
В ответ получим кол-во объектов на вкладках:
{
    "Approved": 9,
    "Inapproved": 6,
    "Archive": 1
}