--------------------------------------------------------------------------------------
https://easy2study.com/war/api/course/calendar/?page=1&range=month&timezone=-3 - получение календаря на текущий месяц;
Требуется токен учителя в header;
--------------------------------------------------------------------------------------
Если хотим просмотреть чужой календарь, то токен не требуется:
https://easy2study.com/war/api/course/calendar/?user={id}&page=1&range=month&timezone=-3 - получение календаря на текущий месяц по user id;
Метод GET;
Для переключения месяцев меняем значение page, 0 - текущий;
--------------------------------------------------------------------------------------
https://easy2study.com/war/api/course/calendar/?page=1&range=week&timezone=-3 - получение календаря на текущюю неделю;
Требуется токен учителя в header;
--------------------------------------------------------------------------------------
Если хотим просмотреть чужой календарь, то токен не требуется:
https://easy2study.com/war/api/course/calendar/?user={id}&page=1&range=week&timezone=-3 - получение календаря на текущюю неделю по user id;
Метод GET;
Для переключения недели меняем значение page, 0 - текущая;
--------------------------------------------------------------------------------------
https://easy2study.com/war/api/course/calendar/{id}/?timezone=-3 - получение времени дня по id;
Требуется токен учителя в header;
--------------------------------------------------------------------------------------
Если хотим просмотреть чужой календарь, то токен не требуется:
https://easy2study.com/war/api/course/calendar/{id}/?user={id}&timezone=-3 - получение времени дня по id дня и user id;
--------------------------------------------------------------------------------------
https://easy2study.com/war/api/course/freetime/?timezone=-3 - добавление свободного для занятий времени;
Метод POST;
Body:
{
        "date": ["2023-09-15", "2023-09-16", "2023-09-20"],
        "time": [
            [12, 15, 16], #массив времён для даты "2023-02-15" (0 индекс в массиве)
            [8, 9, 10],
            [10]
        ],
        "free": [ 
            [false, false, true], #платно\бесплатно, каждый массив соответствует дню, а его элемент времени, которое добавляем
            [false, false, true],
            [true]
        ]
}
Требуется токен учителя в header;
--------------------------------------------------------------------------------------
https://easy2study.com/war/api/course/freetime/?timezone=-3 - редактирование дней;
Метод PATCH;
Body:
{
	"date": ["2023-02-15", "2023-02-16", "2023-02-20"],
        "time": [
            [12, 15, 16], #если хотим удалить время, просто убираем из массива, а если добавить то соответственно добавляем
            [8, 9, 10],
            [10]
        ],
        "free": [ 
            [false, false, true], #значение true\false можно менять для существующих объектов
            [false, false, true],
            [true]
        ]
}
Требуется токен учителя в header;
--------------------------------------------------------------------------------------
Поля объекта дня:
{
	"id": 5180, #идентификатор объекта календаря
        "weekday": "Wed", #день недели
        "month": "Feb", #месяц
        "day": 2, #число
        "check": false, #является ли сегодняшней датой
        "empty": true, #поле для преподователя, индикатор заполненности дня (если есть добавленное свободное время), в остальных случаях (включая просмотр без токена true)
	"select": false,
        "full": true, #заполнено ли время персональными заявками
        "course": false,
        "have_orders": false, #есть ли заявки для разела Lessons
        "unit": "2023-02-02", #дата
}
Поля объекта времени:
{
        "id": null, #идентификатор объекта свободного времени
        "time": "05:00", #значение времени
        "empty": true, #если преподователь добавил данное время как свободное, то false
        "order": false #доступность времени, если true - то на данное время уже есть подтверждённая заявка
	"select": false #поле с неизменным значением, просил добавить Егор младший
	"paid": false #платно/бесплатно
	"course": true
	...
}
--------------------------------------------------------------------------------------