--------------------------------------------------------------------------------------
https://easy2study.com/war/api/feedback/ - обратная связь;
метод POST;
Body:
{
    "name": "Ivan Divan",
    "question": "Warning!",
    "email": "divan@il.com",
    "phone": "+375293550005"
}
Все поля обязательны, кроме phone. Если пользователь залогинился, то можно брать email из war/api/user/me/;
--------------------------------------------------------------------------------------