--------------------------------------------------------------------------------------
wss://easy2study.com/war/notify/{user_id} - сокет счётчика новых сообщений чата (конверт), вместо {user_id} - id текущего пользователя;
Данный сокет предназначен только для чтения, ничего отправлять не нужно, только слушать;
К данному сокету подключаемя после user/me (достаём из него id пользователя);
Пример объекта, приходящего в сокет:
{
  "chat_all": 3, #общее количество непрочитанных сообщений, на значке конверта
  "chat_69": 2, #количество сообщений в конкретном чате, нужно для отображения количества в списке чатов
}
--------------------------------------------------------------------------------------
wss://easy2study.com/war/dingdong/{user_id} - сокет колокольчика, вместо {user_id} - id текущего пользователя;
Данный сокет предназначен только для чтения, ничего отправлять не нужно, только слушать;
К данному сокету подключаемя после user/me (достаём из него id пользователя);
Пример объекта, приходящего в сокет:
{
  "count": "3"
}
--------------------------------------------------------------------------------------
https://easy2study.com/war/api/notification/my/ - список уведомлений текущего пользователя;
метод GET;
Требуется токен пользователя в header;
Это простой запрос, который выгружает список уведомлений пользователя;
--------------------------------------------------------------------------------------
https://easy2study.com/war/api/notification/my/{id}/ - удалить уведомление;
метод DELETE;
Требуется токен пользователя в header;
--------------------------------------------------------------------------------------