--------------------------------------------------------------------------------------
https://easy2study.com/war/api/videocourse/order - список заявок;
Студент получает только свои заявки на видеокурсы, а учитель - все заявки на свои видеокурсы;
Метод GET;
Требуется токен в header;
--------------------------------------------------------------------------------------
https://easy2study.com/war/api/videocourse/order/ - бронирование видеокурса;
Метод POST;
Body:
{
    "videocourse": 1, #тут id объекта видеокурса
}
Требуется токен студента в header;
Пример ответа:
{'detail': 'Videocourse successfully booked! You have 15 minutes to payment!', 'id': 123}
--------------------------------------------------------------------------------------
https://easy2study.com/war/api/videocourse/order/{id}/ - просмотр заявки;
Метод GET;
Требуется токен в header;
Доступно автору либо учителю;
Учитель может удалять заявки на свой курс со статусом 3 (архив), а ученик только свои также со статусом 3;
--------------------------------------------------------------------------------------
https://easy2study.com/war/api/videocourse/order/{id}/ - удаление заяки из архива;
Метод DELETE;
Требуется токен в header;
--------------------------------------------------------------------------------------
https://easy2study.com/war/api/videocourse/order/filter/?status=1 - фильтр заявок по статусу;
Студент получает только свои заявки на видеокурсы, а учитель - все заявки на свои видеокурсы;
Метод GET;
Требуется токен в header;
Статусы:
0, New,
1, Approved,
2, Inapproved,
3, Archive
*вкладка New для учителя неактуальна
--------------------------------------------------------------------------------------
https://easy2study.com/war/api/videocourse/order/filter/?id={id} - фильтр заявок по id видеокурса (все статусы);
Студент получает только свои заявки на видеокурс, а учитель - все заявки на выбранный видеокурс;
Метод GET;
Требуется токен в header;
*Также можно использовать вместе с предыдущим запросом, например:
https://easy2study.com/war/api/course/order/filter/?id=52&status=2 и мы получим все отклонённыезаявки на видеокурс с id 52;
--------------------------------------------------------------------------------------
https://easy2study.com/war/api/videocourse/order/{id}/ - смена статуса заявки;
Только для учителя к которому относится заявка;
Метод PATCH;
Body:
{
    "status": 1
}
Требуется токен учителя в header;
Статусы:
1, Approved,
2, Inapproved
--------------------------------------------------------------------------------------
https://easy2study.com/war/api/videocourse/count/ - количество объектов на вкладках;
Метод GET;
Требуется токен в header;
В ответ получим кол-во объектов на вкладках:
Студент:
{	
    "New": 0,
    "Approved": 9,
    "Rejected": 6,
    "Archive": 1
}
Учитель:
{
    "Approved": 9,
    "Rejected": 6,
    "Archive": 1
}